# Copyright 1999-2013 Gentoo Foundation
# Distributed under the terms of the GNU General Public License v2
# $Header$

# Re-add AIX libc
-elibc_AIX
-kernel_AIX

# these will more than likely never work on AIX
3dfx
3dnow
3dnowext
acpi
alsa
apm
cap
caps
cman
clvm
directfb
divx4linux
djbfft
emul-linux-x86
fbcon
fdftk
fmod
ggi
gpm
hardened
icc
icc-pgo
mmx
mmx2
# the following USE flag requires device-mapper
on-the-fly-crypt
oss
solid
sse
sse2
svga
sybase
sybase-ct
rtc
uclibc
voodoo3
pvm
v4l
